{
  "profiles": {
    "Mz.Bot.Discord.Spotify": {
      "commandName": "Project",
      "environmentVariables": {
        "spotifyApiClientId": "HIDDEN",
        "DOTNET_ENVIRONMENT": "Development",
        "spotifyApiClientSecret": "HIDDEN",
        "discordApplicationSecret": "HIDDEN"
      },
      "dotnetRunMessages": "true"
    },
    "Docker": {
      "commandName": "Docker"
    }
  }
}